{
	"substraction": {
		"left-child": {
			"homothety": {
				"x": 4,
				"y": 4,
				"z": 1,
				"child": {
					"cylinder": {
						"red": 32,
						"green": 32,
						"blue": 255
					}
				}
			}
		},
		"right-child": {
			"translation": {
				"x": 0,
				"y": 0,
				"z": 3.5,
				"child": {
					"homothety": {
						"x": 4,
						"y": 4,
						"z": 4,
						"child": {
							"sphere": {
								"red": 255,
								"green": 128,
								"blue": 0
							}
						}
					}
				}
			}
		}
	}
}
